Name,Organization,Designation,Email,Contact No.
Dinesh Wadhwa,e Radio Works P Ltd. ,Proprietor,dinesh.wadhwa.paul@rediffmail.com,9300730363
Divya Kukreja ,IRDC P Ltd,Proprietor,divya11kukreja@gmail.com,
Shelendra Patel ,Inspire Krishi,Joint MD,shelendra.patel@gmail.com,9893543895
Shirish Shukla ,Inspire School of Motivation ,Joint MD,shirish30shukla@gmail.com,9826066862
Meghesh Sharma,Kavish Media,Founder Director ,meghesh.sharma@gmail.com,9039456378
