Closed-0002223,0000257,0002208,0002297,0002321,0002322,0002198,0001444,0002329,0002189,0002335,0002353,0002337,0000256,0002215

Reopen-0002227,0002259,


New Issues
1.E-cell -estd coming
2.Institute Profile - code
3.Same faculty name user can select
4.Course should not be editable once it is been certified.